{
  "imgs": [
    {
      "filename": "parrot_fish.jpg"
    }
  ],
  "name": "Parrot Fish",
  "short_name":"Parrot Fish",
  "min_size":25,
  "unit_size":"cm",
  "bag_limit": 5,
  "posession_limit": 5
}