{
  "imgs": [
    {
      "filename": "squire_juvenile_snapper.jpg"
    }
  ],
  "name": "Squire (Juvenile Snapper)",
  "short_name":"Squire (Juvenile Snapper)",
  "min_size":35.0,
  "unit_size":"cm",
  "bag_limit": 5,
  "posession_limit": 5
}