{
  "imgs": [
    {
      "filename": "flounder.jpg"
    }
  ],
  "name": "Flounder",
  "short_name":"Flounder",
  "min_size":28.0,
  "unit_size":"cm",
  "bag_limit": "No Limit",
  "posession_limit": "No Limit"
}